(['C:\\Users\\kimge\\games\\kim-pygames\\test_game\\test.py'],
 ['C:\\Users\\kimge\\games\\kim-pygames\\test_game'],
 ['codecs'],
 ['C:\\Users\\kimge\\games\\kim-pygames\\.venv\\lib\\site-packages\\_pyinstaller_hooks_contrib\\hooks\\stdhooks',
  'C:\\Users\\kimge\\games\\kim-pygames\\.venv\\lib\\site-packages\\_pyinstaller_hooks_contrib\\hooks\\stdhooks\\__pycache__',
  'C:\\Users\\kimge\\games\\kim-pygames\\.venv\\lib\\site-packages\\_pyinstaller_hooks_contrib\\hooks\\rthooks',
  'C:\\Users\\kimge\\games\\kim-pygames\\.venv\\lib\\site-packages\\_pyinstaller_hooks_contrib\\hooks\\rthooks\\__pycache__',
  'C:\\Users\\kimge\\games\\kim-pygames\\.venv\\lib\\site-packages\\_pyinstaller_hooks_contrib\\hooks',
  'C:\\Users\\kimge\\games\\kim-pygames\\.venv\\lib\\site-packages\\pygame\\__pyinstaller'],
 {},
 [],
 [],
 False,
 False,
 False,
 {},
 '3.10.6 (tags/v3.10.6:9c7b4bd, Aug  1 2022, 21:53:49) [MSC v.1932 64 bit '
 '(AMD64)]',
 [('pyi_rth_inspect',
   'C:\\Users\\kimge\\games\\kim-pygames\\.venv\\Lib\\site-packages\\PyInstaller\\hooks\\rthooks\\pyi_rth_inspect.py',
   'PYSOURCE'),
  ('pyi_rth_pkgres',
   'C:\\Users\\kimge\\games\\kim-pygames\\.venv\\Lib\\site-packages\\PyInstaller\\hooks\\rthooks\\pyi_rth_pkgres.py',
   'PYSOURCE'),
  ('pyi_rth_pkgutil',
   'C:\\Users\\kimge\\games\\kim-pygames\\.venv\\Lib\\site-packages\\PyInstaller\\hooks\\rthooks\\pyi_rth_pkgutil.py',
   'PYSOURCE'),
  ('test',
   'C:\\Users\\kimge\\games\\kim-pygames\\test_game\\test.py',
   'PYSOURCE')],
 [('pkgutil',
   'C:\\Users\\kimge\\AppData\\Local\\Programs\\Python\\Python310\\lib\\pkgutil.py',
   'PYMODULE'),
  ('zipimport',
   'C:\\Users\\kimge\\AppData\\Local\\Programs\\Python\\Python310\\lib\\zipimport.py',
   'PYMODULE'),
  ('importlib.readers',
   'C:\\Users\\kimge\\AppData\\Local\\Programs\\Python\\Python310\\lib\\importlib\\readers.py',
   'PYMODULE'),
  ('importlib.abc',
   'C:\\Users\\kimge\\AppData\\Local\\Programs\\Python\\Python310\\lib\\importlib\\abc.py',
   'PYMODULE'),
  ('typing',
   'C:\\Users\\kimge\\AppData\\Local\\Programs\\Python\\Python310\\lib\\typing.py',
   'PYMODULE'),
  ('contextlib',
   'C:\\Users\\kimge\\AppData\\Local\\Programs\\Python\\Python310\\lib\\contextlib.py',
   'PYMODULE'),
  ('importlib._abc',
   'C:\\Users\\kimge\\AppData\\Local\\Programs\\Python\\Python310\\lib\\importlib\\_abc.py',
   'PYMODULE'),
  ('importlib._bootstrap',
   'C:\\Users\\kimge\\AppData\\Local\\Programs\\Python\\Python310\\lib\\importlib\\_bootstrap.py',
   'PYMODULE'),
  ('importlib._bootstrap_external',
   'C:\\Users\\kimge\\AppData\\Local\\Programs\\Python\\Python310\\lib\\importlib\\_bootstrap_external.py',
   'PYMODULE'),
  ('importlib.metadata',
   'C:\\Users\\kimge\\AppData\\Local\\Programs\\Python\\Python310\\lib\\importlib\\metadata\\__init__.py',
   'PYMODULE'),
  ('importlib.metadata._itertools',
   'C:\\Users\\kimge\\AppData\\Local\\Programs\\Python\\Python310\\lib\\importlib\\metadata\\_itertools.py',
   'PYMODULE'),
  ('importlib.metadata._functools',
   'C:\\Users\\kimge\\AppData\\Local\\Programs\\Python\\Python310\\lib\\importlib\\metadata\\_functools.py',
   'PYMODULE'),
  ('importlib.metadata._collections',
   'C:\\Users\\kimge\\AppData\\Local\\Programs\\Python\\Python310\\lib\\importlib\\metadata\\_collections.py',
   'PYMODULE'),
  ('importlib.metadata._meta',
   'C:\\Users\\kimge\\AppData\\Local\\Programs\\Python\\Python310\\lib\\importlib\\metadata\\_meta.py',
   'PYMODULE'),
  ('importlib.metadata._adapters',
   'C:\\Users\\kimge\\AppData\\Local\\Programs\\Python\\Python310\\lib\\importlib\\metadata\\_adapters.py',
   'PYMODULE'),
  ('importlib.metadata._text',
   'C:\\Users\\kimge\\AppData\\Local\\Programs\\Python\\Python310\\lib\\importlib\\metadata\\_text.py',
   'PYMODULE'),
  ('email.message',
   'C:\\Users\\kimge\\AppData\\Local\\Programs\\Python\\Python310\\lib\\email\\message.py',
   'PYMODULE'),
  ('email.policy',
   'C:\\Users\\kimge\\AppData\\Local\\Programs\\Python\\Python310\\lib\\email\\policy.py',
   'PYMODULE'),
  ('email.contentmanager',
   'C:\\Users\\kimge\\AppData\\Local\\Programs\\Python\\Python310\\lib\\email\\contentmanager.py',
   'PYMODULE'),
  ('email.quoprimime',
   'C:\\Users\\kimge\\AppData\\Local\\Programs\\Python\\Python310\\lib\\email\\quoprimime.py',
   'PYMODULE'),
  ('string',
   'C:\\Users\\kimge\\AppData\\Local\\Programs\\Python\\Python310\\lib\\string.py',
   'PYMODULE'),
  ('email.headerregistry',
   'C:\\Users\\kimge\\AppData\\Local\\Programs\\Python\\Python310\\lib\\email\\headerregistry.py',
   'PYMODULE'),
  ('email._header_value_parser',
   'C:\\Users\\kimge\\AppData\\Local\\Programs\\Python\\Python310\\lib\\email\\_header_value_parser.py',
   'PYMODULE'),
  ('email.iterators',
   'C:\\Users\\kimge\\AppData\\Local\\Programs\\Python\\Python310\\lib\\email\\iterators.py',
   'PYMODULE'),
  ('email.generator',
   'C:\\Users\\kimge\\AppData\\Local\\Programs\\Python\\Python310\\lib\\email\\generator.py',
   'PYMODULE'),
  ('copy',
   'C:\\Users\\kimge\\AppData\\Local\\Programs\\Python\\Python310\\lib\\copy.py',
   'PYMODULE'),
  ('email._encoded_words',
   'C:\\Users\\kimge\\AppData\\Local\\Programs\\Python\\Python310\\lib\\email\\_encoded_words.py',
   'PYMODULE'),
  ('base64',
   'C:\\Users\\kimge\\AppData\\Local\\Programs\\Python\\Python310\\lib\\base64.py',
   'PYMODULE'),
  ('getopt',
   'C:\\Users\\kimge\\AppData\\Local\\Programs\\Python\\Python310\\lib\\getopt.py',
   'PYMODULE'),
  ('gettext',
   'C:\\Users\\kimge\\AppData\\Local\\Programs\\Python\\Python310\\lib\\gettext.py',
   'PYMODULE'),
  ('struct',
   'C:\\Users\\kimge\\AppData\\Local\\Programs\\Python\\Python310\\lib\\struct.py',
   'PYMODULE'),
  ('email.charset',
   'C:\\Users\\kimge\\AppData\\Local\\Programs\\Python\\Python310\\lib\\email\\charset.py',
   'PYMODULE'),
  ('email.encoders',
   'C:\\Users\\kimge\\AppData\\Local\\Programs\\Python\\Python310\\lib\\email\\encoders.py',
   'PYMODULE'),
  ('email.base64mime',
   'C:\\Users\\kimge\\AppData\\Local\\Programs\\Python\\Python310\\lib\\email\\base64mime.py',
   'PYMODULE'),
  ('email._policybase',
   'C:\\Users\\kimge\\AppData\\Local\\Programs\\Python\\Python310\\lib\\email\\_policybase.py',
   'PYMODULE'),
  ('email.header',
   'C:\\Users\\kimge\\AppData\\Local\\Programs\\Python\\Python310\\lib\\email\\header.py',
   'PYMODULE'),
  ('email.errors',
   'C:\\Users\\kimge\\AppData\\Local\\Programs\\Python\\Python310\\lib\\email\\errors.py',
   'PYMODULE'),
  ('email.utils',
   'C:\\Users\\kimge\\AppData\\Local\\Programs\\Python\\Python310\\lib\\email\\utils.py',
   'PYMODULE'),
  ('email._parseaddr',
   'C:\\Users\\kimge\\AppData\\Local\\Programs\\Python\\Python310\\lib\\email\\_parseaddr.py',
   'PYMODULE'),
  ('calendar',
   'C:\\Users\\kimge\\AppData\\Local\\Programs\\Python\\Python310\\lib\\calendar.py',
   'PYMODULE'),
  ('argparse',
   'C:\\Users\\kimge\\AppData\\Local\\Programs\\Python\\Python310\\lib\\argparse.py',
   'PYMODULE'),
  ('shutil',
   'C:\\Users\\kimge\\AppData\\Local\\Programs\\Python\\Python310\\lib\\shutil.py',
   'PYMODULE'),
  ('tarfile',
   'C:\\Users\\kimge\\AppData\\Local\\Programs\\Python\\Python310\\lib\\tarfile.py',
   'PYMODULE'),
  ('gzip',
   'C:\\Users\\kimge\\AppData\\Local\\Programs\\Python\\Python310\\lib\\gzip.py',
   'PYMODULE'),
  ('_compression',
   'C:\\Users\\kimge\\AppData\\Local\\Programs\\Python\\Python310\\lib\\_compression.py',
   'PYMODULE'),
  ('lzma',
   'C:\\Users\\kimge\\AppData\\Local\\Programs\\Python\\Python310\\lib\\lzma.py',
   'PYMODULE'),
  ('bz2',
   'C:\\Users\\kimge\\AppData\\Local\\Programs\\Python\\Python310\\lib\\bz2.py',
   'PYMODULE'),
  ('datetime',
   'C:\\Users\\kimge\\AppData\\Local\\Programs\\Python\\Python310\\lib\\datetime.py',
   'PYMODULE'),
  ('_strptime',
   'C:\\Users\\kimge\\AppData\\Local\\Programs\\Python\\Python310\\lib\\_strptime.py',
   'PYMODULE'),
  ('socket',
   'C:\\Users\\kimge\\AppData\\Local\\Programs\\Python\\Python310\\lib\\socket.py',
   'PYMODULE'),
  ('selectors',
   'C:\\Users\\kimge\\AppData\\Local\\Programs\\Python\\Python310\\lib\\selectors.py',
   'PYMODULE'),
  ('quopri',
   'C:\\Users\\kimge\\AppData\\Local\\Programs\\Python\\Python310\\lib\\quopri.py',
   'PYMODULE'),
  ('uu',
   'C:\\Users\\kimge\\AppData\\Local\\Programs\\Python\\Python310\\lib\\uu.py',
   'PYMODULE'),
  ('optparse',
   'C:\\Users\\kimge\\AppData\\Local\\Programs\\Python\\Python310\\lib\\optparse.py',
   'PYMODULE'),
  ('textwrap',
   'C:\\Users\\kimge\\AppData\\Local\\Programs\\Python\\Python310\\lib\\textwrap.py',
   'PYMODULE'),
  ('email',
   'C:\\Users\\kimge\\AppData\\Local\\Programs\\Python\\Python310\\lib\\email\\__init__.py',
   'PYMODULE'),
  ('email.parser',
   'C:\\Users\\kimge\\AppData\\Local\\Programs\\Python\\Python310\\lib\\email\\parser.py',
   'PYMODULE'),
  ('email.feedparser',
   'C:\\Users\\kimge\\AppData\\Local\\Programs\\Python\\Python310\\lib\\email\\feedparser.py',
   'PYMODULE'),
  ('csv',
   'C:\\Users\\kimge\\AppData\\Local\\Programs\\Python\\Python310\\lib\\csv.py',
   'PYMODULE'),
  ('zipfile',
   'C:\\Users\\kimge\\AppData\\Local\\Programs\\Python\\Python310\\lib\\zipfile.py',
   'PYMODULE'),
  ('py_compile',
   'C:\\Users\\kimge\\AppData\\Local\\Programs\\Python\\Python310\\lib\\py_compile.py',
   'PYMODULE'),
  ('threading',
   'C:\\Users\\kimge\\AppData\\Local\\Programs\\Python\\Python310\\lib\\threading.py',
   'PYMODULE'),
  ('_threading_local',
   'C:\\Users\\kimge\\AppData\\Local\\Programs\\Python\\Python310\\lib\\_threading_local.py',
   'PYMODULE'),
  ('inspect',
   'C:\\Users\\kimge\\AppData\\Local\\Programs\\Python\\Python310\\lib\\inspect.py',
   'PYMODULE'),
  ('dis',
   'C:\\Users\\kimge\\AppData\\Local\\Programs\\Python\\Python310\\lib\\dis.py',
   'PYMODULE'),
  ('opcode',
   'C:\\Users\\kimge\\AppData\\Local\\Programs\\Python\\Python310\\lib\\opcode.py',
   'PYMODULE'),
  ('ast',
   'C:\\Users\\kimge\\AppData\\Local\\Programs\\Python\\Python310\\lib\\ast.py',
   'PYMODULE'),
  ('importlib.machinery',
   'C:\\Users\\kimge\\AppData\\Local\\Programs\\Python\\Python310\\lib\\importlib\\machinery.py',
   'PYMODULE'),
  ('importlib.util',
   'C:\\Users\\kimge\\AppData\\Local\\Programs\\Python\\Python310\\lib\\importlib\\util.py',
   'PYMODULE'),
  ('importlib',
   'C:\\Users\\kimge\\AppData\\Local\\Programs\\Python\\Python310\\lib\\importlib\\__init__.py',
   'PYMODULE'),
  ('importlib._common',
   'C:\\Users\\kimge\\AppData\\Local\\Programs\\Python\\Python310\\lib\\importlib\\_common.py',
   'PYMODULE'),
  ('importlib._adapters',
   'C:\\Users\\kimge\\AppData\\Local\\Programs\\Python\\Python310\\lib\\importlib\\_adapters.py',
   'PYMODULE'),
  ('tempfile',
   'C:\\Users\\kimge\\AppData\\Local\\Programs\\Python\\Python310\\lib\\tempfile.py',
   'PYMODULE'),
  ('pkg_resources',
   'C:\\Users\\kimge\\games\\kim-pygames\\.venv\\lib\\site-packages\\pkg_resources\\__init__.py',
   'PYMODULE'),
  ('packaging.version',
   'C:\\Users\\kimge\\games\\kim-pygames\\.venv\\lib\\site-packages\\packaging\\version.py',
   'PYMODULE'),
  ('packaging.utils',
   'C:\\Users\\kimge\\games\\kim-pygames\\.venv\\lib\\site-packages\\packaging\\utils.py',
   'PYMODULE'),
  ('packaging.tags',
   'C:\\Users\\kimge\\games\\kim-pygames\\.venv\\lib\\site-packages\\packaging\\tags.py',
   'PYMODULE'),
  ('subprocess',
   'C:\\Users\\kimge\\AppData\\Local\\Programs\\Python\\Python310\\lib\\subprocess.py',
   'PYMODULE'),
  ('signal',
   'C:\\Users\\kimge\\AppData\\Local\\Programs\\Python\\Python310\\lib\\signal.py',
   'PYMODULE'),
  ('logging',
   'C:\\Users\\kimge\\AppData\\Local\\Programs\\Python\\Python310\\lib\\logging\\__init__.py',
   'PYMODULE'),
  ('pickle',
   'C:\\Users\\kimge\\AppData\\Local\\Programs\\Python\\Python310\\lib\\pickle.py',
   'PYMODULE'),
  ('pprint',
   'C:\\Users\\kimge\\AppData\\Local\\Programs\\Python\\Python310\\lib\\pprint.py',
   'PYMODULE'),
  ('dataclasses',
   'C:\\Users\\kimge\\AppData\\Local\\Programs\\Python\\Python310\\lib\\dataclasses.py',
   'PYMODULE'),
  ('_compat_pickle',
   'C:\\Users\\kimge\\AppData\\Local\\Programs\\Python\\Python310\\lib\\_compat_pickle.py',
   'PYMODULE'),
  ('packaging.specifiers',
   'C:\\Users\\kimge\\games\\kim-pygames\\.venv\\lib\\site-packages\\packaging\\specifiers.py',
   'PYMODULE'),
  ('packaging.requirements',
   'C:\\Users\\kimge\\games\\kim-pygames\\.venv\\lib\\site-packages\\packaging\\requirements.py',
   'PYMODULE'),
  ('packaging.markers',
   'C:\\Users\\kimge\\games\\kim-pygames\\.venv\\lib\\site-packages\\packaging\\markers.py',
   'PYMODULE'),
  ('packaging._tokenizer',
   'C:\\Users\\kimge\\games\\kim-pygames\\.venv\\lib\\site-packages\\packaging\\_tokenizer.py',
   'PYMODULE'),
  ('packaging._structures',
   'C:\\Users\\kimge\\games\\kim-pygames\\.venv\\lib\\site-packages\\packaging\\_structures.py',
   'PYMODULE'),
  ('packaging._parser',
   'C:\\Users\\kimge\\games\\kim-pygames\\.venv\\lib\\site-packages\\packaging\\_parser.py',
   'PYMODULE'),
  ('packaging._musllinux',
   'C:\\Users\\kimge\\games\\kim-pygames\\.venv\\lib\\site-packages\\packaging\\_musllinux.py',
   'PYMODULE'),
  ('packaging._manylinux',
   'C:\\Users\\kimge\\games\\kim-pygames\\.venv\\lib\\site-packages\\packaging\\_manylinux.py',
   'PYMODULE'),
  ('ctypes',
   'C:\\Users\\kimge\\AppData\\Local\\Programs\\Python\\Python310\\lib\\ctypes\\__init__.py',
   'PYMODULE'),
  ('ctypes._endian',
   'C:\\Users\\kimge\\AppData\\Local\\Programs\\Python\\Python310\\lib\\ctypes\\_endian.py',
   'PYMODULE'),
  ('packaging._elffile',
   'C:\\Users\\kimge\\games\\kim-pygames\\.venv\\lib\\site-packages\\packaging\\_elffile.py',
   'PYMODULE'),
  ('packaging',
   'C:\\Users\\kimge\\games\\kim-pygames\\.venv\\lib\\site-packages\\packaging\\__init__.py',
   'PYMODULE'),
  ('pkg_resources._vendor.zipp',
   'C:\\Users\\kimge\\games\\kim-pygames\\.venv\\lib\\site-packages\\pkg_resources\\_vendor\\zipp.py',
   'PYMODULE'),
  ('pkg_resources._vendor.pyparsing.util',
   'C:\\Users\\kimge\\games\\kim-pygames\\.venv\\lib\\site-packages\\pkg_resources\\_vendor\\pyparsing\\util.py',
   'PYMODULE'),
  ('pkg_resources._vendor.pyparsing.unicode',
   'C:\\Users\\kimge\\games\\kim-pygames\\.venv\\lib\\site-packages\\pkg_resources\\_vendor\\pyparsing\\unicode.py',
   'PYMODULE'),
  ('pkg_resources._vendor.pyparsing.testing',
   'C:\\Users\\kimge\\games\\kim-pygames\\.venv\\lib\\site-packages\\pkg_resources\\_vendor\\pyparsing\\testing.py',
   'PYMODULE'),
  ('pkg_resources._vendor.pyparsing.results',
   'C:\\Users\\kimge\\games\\kim-pygames\\.venv\\lib\\site-packages\\pkg_resources\\_vendor\\pyparsing\\results.py',
   'PYMODULE'),
  ('pkg_resources._vendor.pyparsing.helpers',
   'C:\\Users\\kimge\\games\\kim-pygames\\.venv\\lib\\site-packages\\pkg_resources\\_vendor\\pyparsing\\helpers.py',
   'PYMODULE'),
  ('html.entities',
   'C:\\Users\\kimge\\AppData\\Local\\Programs\\Python\\Python310\\lib\\html\\entities.py',
   'PYMODULE'),
  ('html',
   'C:\\Users\\kimge\\AppData\\Local\\Programs\\Python\\Python310\\lib\\html\\__init__.py',
   'PYMODULE'),
  ('pkg_resources._vendor.pyparsing.exceptions',
   'C:\\Users\\kimge\\games\\kim-pygames\\.venv\\lib\\site-packages\\pkg_resources\\_vendor\\pyparsing\\exceptions.py',
   'PYMODULE'),
  ('pkg_resources._vendor.pyparsing.core',
   'C:\\Users\\kimge\\games\\kim-pygames\\.venv\\lib\\site-packages\\pkg_resources\\_vendor\\pyparsing\\core.py',
   'PYMODULE'),
  ('pkg_resources._vendor.pyparsing.diagram',
   'C:\\Users\\kimge\\games\\kim-pygames\\.venv\\lib\\site-packages\\pkg_resources\\_vendor\\pyparsing\\diagram\\__init__.py',
   'PYMODULE'),
  ('pdb',
   'C:\\Users\\kimge\\AppData\\Local\\Programs\\Python\\Python310\\lib\\pdb.py',
   'PYMODULE'),
  ('pydoc',
   'C:\\Users\\kimge\\AppData\\Local\\Programs\\Python\\Python310\\lib\\pydoc.py',
   'PYMODULE'),
  ('webbrowser',
   'C:\\Users\\kimge\\AppData\\Local\\Programs\\Python\\Python310\\lib\\webbrowser.py',
   'PYMODULE'),
  ('http.server',
   'C:\\Users\\kimge\\AppData\\Local\\Programs\\Python\\Python310\\lib\\http\\server.py',
   'PYMODULE'),
  ('http',
   'C:\\Users\\kimge\\AppData\\Local\\Programs\\Python\\Python310\\lib\\http\\__init__.py',
   'PYMODULE'),
  ('socketserver',
   'C:\\Users\\kimge\\AppData\\Local\\Programs\\Python\\Python310\\lib\\socketserver.py',
   'PYMODULE'),
  ('mimetypes',
   'C:\\Users\\kimge\\AppData\\Local\\Programs\\Python\\Python310\\lib\\mimetypes.py',
   'PYMODULE'),
  ('http.client',
   'C:\\Users\\kimge\\AppData\\Local\\Programs\\Python\\Python310\\lib\\http\\client.py',
   'PYMODULE'),
  ('ssl',
   'C:\\Users\\kimge\\AppData\\Local\\Programs\\Python\\Python310\\lib\\ssl.py',
   'PYMODULE'),
  ('pydoc_data.topics',
   'C:\\Users\\kimge\\AppData\\Local\\Programs\\Python\\Python310\\lib\\pydoc_data\\topics.py',
   'PYMODULE'),
  ('pydoc_data',
   'C:\\Users\\kimge\\AppData\\Local\\Programs\\Python\\Python310\\lib\\pydoc_data\\__init__.py',
   'PYMODULE'),
  ('tty',
   'C:\\Users\\kimge\\AppData\\Local\\Programs\\Python\\Python310\\lib\\tty.py',
   'PYMODULE'),
  ('runpy',
   'C:\\Users\\kimge\\AppData\\Local\\Programs\\Python\\Python310\\lib\\runpy.py',
   'PYMODULE'),
  ('shlex',
   'C:\\Users\\kimge\\AppData\\Local\\Programs\\Python\\Python310\\lib\\shlex.py',
   'PYMODULE'),
  ('glob',
   'C:\\Users\\kimge\\AppData\\Local\\Programs\\Python\\Python310\\lib\\glob.py',
   'PYMODULE'),
  ('code',
   'C:\\Users\\kimge\\AppData\\Local\\Programs\\Python\\Python310\\lib\\code.py',
   'PYMODULE'),
  ('codeop',
   'C:\\Users\\kimge\\AppData\\Local\\Programs\\Python\\Python310\\lib\\codeop.py',
   'PYMODULE'),
  ('__future__',
   'C:\\Users\\kimge\\AppData\\Local\\Programs\\Python\\Python310\\lib\\__future__.py',
   'PYMODULE'),
  ('bdb',
   'C:\\Users\\kimge\\AppData\\Local\\Programs\\Python\\Python310\\lib\\bdb.py',
   'PYMODULE'),
  ('cmd',
   'C:\\Users\\kimge\\AppData\\Local\\Programs\\Python\\Python310\\lib\\cmd.py',
   'PYMODULE'),
  ('pkg_resources._vendor.pyparsing.common',
   'C:\\Users\\kimge\\games\\kim-pygames\\.venv\\lib\\site-packages\\pkg_resources\\_vendor\\pyparsing\\common.py',
   'PYMODULE'),
  ('pkg_resources._vendor.pyparsing.actions',
   'C:\\Users\\kimge\\games\\kim-pygames\\.venv\\lib\\site-packages\\pkg_resources\\_vendor\\pyparsing\\actions.py',
   'PYMODULE'),
  ('pkg_resources._vendor.pyparsing',
   'C:\\Users\\kimge\\games\\kim-pygames\\.venv\\lib\\site-packages\\pkg_resources\\_vendor\\pyparsing\\__init__.py',
   'PYMODULE'),
  ('pkg_resources._vendor.packaging.version',
   'C:\\Users\\kimge\\games\\kim-pygames\\.venv\\lib\\site-packages\\pkg_resources\\_vendor\\packaging\\version.py',
   'PYMODULE'),
  ('pkg_resources._vendor.packaging.utils',
   'C:\\Users\\kimge\\games\\kim-pygames\\.venv\\lib\\site-packages\\pkg_resources\\_vendor\\packaging\\utils.py',
   'PYMODULE'),
  ('pkg_resources._vendor.packaging.tags',
   'C:\\Users\\kimge\\games\\kim-pygames\\.venv\\lib\\site-packages\\pkg_resources\\_vendor\\packaging\\tags.py',
   'PYMODULE'),
  ('pkg_resources._vendor.packaging.specifiers',
   'C:\\Users\\kimge\\games\\kim-pygames\\.venv\\lib\\site-packages\\pkg_resources\\_vendor\\packaging\\specifiers.py',
   'PYMODULE'),
  ('pkg_resources._vendor.packaging.requirements',
   'C:\\Users\\kimge\\games\\kim-pygames\\.venv\\lib\\site-packages\\pkg_resources\\_vendor\\packaging\\requirements.py',
   'PYMODULE'),
  ('pkg_resources._vendor.packaging.markers',
   'C:\\Users\\kimge\\games\\kim-pygames\\.venv\\lib\\site-packages\\pkg_resources\\_vendor\\packaging\\markers.py',
   'PYMODULE'),
  ('pkg_resources._vendor.packaging._structures',
   'C:\\Users\\kimge\\games\\kim-pygames\\.venv\\lib\\site-packages\\pkg_resources\\_vendor\\packaging\\_structures.py',
   'PYMODULE'),
  ('pkg_resources._vendor.packaging._musllinux',
   'C:\\Users\\kimge\\games\\kim-pygames\\.venv\\lib\\site-packages\\pkg_resources\\_vendor\\packaging\\_musllinux.py',
   'PYMODULE'),
  ('pkg_resources._vendor.packaging._manylinux',
   'C:\\Users\\kimge\\games\\kim-pygames\\.venv\\lib\\site-packages\\pkg_resources\\_vendor\\packaging\\_manylinux.py',
   'PYMODULE'),
  ('pkg_resources._vendor.packaging.__about__',
   'C:\\Users\\kimge\\games\\kim-pygames\\.venv\\lib\\site-packages\\pkg_resources\\_vendor\\packaging\\__about__.py',
   'PYMODULE'),
  ('pkg_resources._vendor.packaging',
   'C:\\Users\\kimge\\games\\kim-pygames\\.venv\\lib\\site-packages\\pkg_resources\\_vendor\\packaging\\__init__.py',
   'PYMODULE'),
  ('pkg_resources._vendor.more_itertools.recipes',
   'C:\\Users\\kimge\\games\\kim-pygames\\.venv\\lib\\site-packages\\pkg_resources\\_vendor\\more_itertools\\recipes.py',
   'PYMODULE'),
  ('pkg_resources._vendor.more_itertools.more',
   'C:\\Users\\kimge\\games\\kim-pygames\\.venv\\lib\\site-packages\\pkg_resources\\_vendor\\more_itertools\\more.py',
   'PYMODULE'),
  ('queue',
   'C:\\Users\\kimge\\AppData\\Local\\Programs\\Python\\Python310\\lib\\queue.py',
   'PYMODULE'),
  ('pkg_resources._vendor.more_itertools',
   'C:\\Users\\kimge\\games\\kim-pygames\\.venv\\lib\\site-packages\\pkg_resources\\_vendor\\more_itertools\\__init__.py',
   'PYMODULE'),
  ('pkg_resources._vendor.jaraco.text',
   'C:\\Users\\kimge\\games\\kim-pygames\\.venv\\lib\\site-packages\\pkg_resources\\_vendor\\jaraco\\text\\__init__.py',
   'PYMODULE'),
  ('importlib.resources',
   'C:\\Users\\kimge\\AppData\\Local\\Programs\\Python\\Python310\\lib\\importlib\\resources.py',
   'PYMODULE'),
  ('pkg_resources._vendor.jaraco.functools',
   'C:\\Users\\kimge\\games\\kim-pygames\\.venv\\lib\\site-packages\\pkg_resources\\_vendor\\jaraco\\functools.py',
   'PYMODULE'),
  ('pkg_resources._vendor.jaraco.context',
   'C:\\Users\\kimge\\games\\kim-pygames\\.venv\\lib\\site-packages\\pkg_resources\\_vendor\\jaraco\\context.py',
   'PYMODULE'),
  ('pkg_resources._vendor.jaraco',
   'C:\\Users\\kimge\\games\\kim-pygames\\.venv\\lib\\site-packages\\pkg_resources\\_vendor\\jaraco\\__init__.py',
   'PYMODULE'),
  ('pkg_resources._vendor.importlib_resources.simple',
   'C:\\Users\\kimge\\games\\kim-pygames\\.venv\\lib\\site-packages\\pkg_resources\\_vendor\\importlib_resources\\simple.py',
   'PYMODULE'),
  ('pkg_resources._vendor.importlib_resources.readers',
   'C:\\Users\\kimge\\games\\kim-pygames\\.venv\\lib\\site-packages\\pkg_resources\\_vendor\\importlib_resources\\readers.py',
   'PYMODULE'),
  ('pkg_resources._vendor.importlib_resources.abc',
   'C:\\Users\\kimge\\games\\kim-pygames\\.venv\\lib\\site-packages\\pkg_resources\\_vendor\\importlib_resources\\abc.py',
   'PYMODULE'),
  ('pkg_resources._vendor.importlib_resources._legacy',
   'C:\\Users\\kimge\\games\\kim-pygames\\.venv\\lib\\site-packages\\pkg_resources\\_vendor\\importlib_resources\\_legacy.py',
   'PYMODULE'),
  ('pkg_resources._vendor.importlib_resources._itertools',
   'C:\\Users\\kimge\\games\\kim-pygames\\.venv\\lib\\site-packages\\pkg_resources\\_vendor\\importlib_resources\\_itertools.py',
   'PYMODULE'),
  ('pkg_resources._vendor.importlib_resources._compat',
   'C:\\Users\\kimge\\games\\kim-pygames\\.venv\\lib\\site-packages\\pkg_resources\\_vendor\\importlib_resources\\_compat.py',
   'PYMODULE'),
  ('pkg_resources._vendor.importlib_resources._common',
   'C:\\Users\\kimge\\games\\kim-pygames\\.venv\\lib\\site-packages\\pkg_resources\\_vendor\\importlib_resources\\_common.py',
   'PYMODULE'),
  ('pkg_resources._vendor.importlib_resources._adapters',
   'C:\\Users\\kimge\\games\\kim-pygames\\.venv\\lib\\site-packages\\pkg_resources\\_vendor\\importlib_resources\\_adapters.py',
   'PYMODULE'),
  ('pkg_resources._vendor.importlib_resources',
   'C:\\Users\\kimge\\games\\kim-pygames\\.venv\\lib\\site-packages\\pkg_resources\\_vendor\\importlib_resources\\__init__.py',
   'PYMODULE'),
  ('pkg_resources._vendor.appdirs',
   'C:\\Users\\kimge\\games\\kim-pygames\\.venv\\lib\\site-packages\\pkg_resources\\_vendor\\appdirs.py',
   'PYMODULE'),
  ('pkg_resources._vendor',
   'C:\\Users\\kimge\\games\\kim-pygames\\.venv\\lib\\site-packages\\pkg_resources\\_vendor\\__init__.py',
   'PYMODULE'),
  ('sysconfig',
   'C:\\Users\\kimge\\AppData\\Local\\Programs\\Python\\Python310\\lib\\sysconfig.py',
   'PYMODULE'),
  ('_aix_support',
   'C:\\Users\\kimge\\AppData\\Local\\Programs\\Python\\Python310\\lib\\_aix_support.py',
   'PYMODULE'),
  ('_bootsubprocess',
   'C:\\Users\\kimge\\AppData\\Local\\Programs\\Python\\Python310\\lib\\_bootsubprocess.py',
   'PYMODULE'),
  ('pkg_resources.extern',
   'C:\\Users\\kimge\\games\\kim-pygames\\.venv\\lib\\site-packages\\pkg_resources\\extern\\__init__.py',
   'PYMODULE'),
  ('imp',
   'C:\\Users\\kimge\\AppData\\Local\\Programs\\Python\\Python310\\lib\\imp.py',
   'PYMODULE'),
  ('plistlib',
   'C:\\Users\\kimge\\AppData\\Local\\Programs\\Python\\Python310\\lib\\plistlib.py',
   'PYMODULE'),
  ('xml.parsers.expat',
   'C:\\Users\\kimge\\AppData\\Local\\Programs\\Python\\Python310\\lib\\xml\\parsers\\expat.py',
   'PYMODULE'),
  ('xml.parsers',
   'C:\\Users\\kimge\\AppData\\Local\\Programs\\Python\\Python310\\lib\\xml\\parsers\\__init__.py',
   'PYMODULE'),
  ('xml',
   'C:\\Users\\kimge\\AppData\\Local\\Programs\\Python\\Python310\\lib\\xml\\__init__.py',
   'PYMODULE'),
  ('xml.sax.expatreader',
   'C:\\Users\\kimge\\AppData\\Local\\Programs\\Python\\Python310\\lib\\xml\\sax\\expatreader.py',
   'PYMODULE'),
  ('xml.sax.saxutils',
   'C:\\Users\\kimge\\AppData\\Local\\Programs\\Python\\Python310\\lib\\xml\\sax\\saxutils.py',
   'PYMODULE'),
  ('xml.sax',
   'C:\\Users\\kimge\\AppData\\Local\\Programs\\Python\\Python310\\lib\\xml\\sax\\__init__.py',
   'PYMODULE'),
  ('xml.sax.handler',
   'C:\\Users\\kimge\\AppData\\Local\\Programs\\Python\\Python310\\lib\\xml\\sax\\handler.py',
   'PYMODULE'),
  ('xml.sax._exceptions',
   'C:\\Users\\kimge\\AppData\\Local\\Programs\\Python\\Python310\\lib\\xml\\sax\\_exceptions.py',
   'PYMODULE'),
  ('xml.sax.xmlreader',
   'C:\\Users\\kimge\\AppData\\Local\\Programs\\Python\\Python310\\lib\\xml\\sax\\xmlreader.py',
   'PYMODULE'),
  ('platform',
   'C:\\Users\\kimge\\AppData\\Local\\Programs\\Python\\Python310\\lib\\platform.py',
   'PYMODULE'),
  ('getpass',
   'C:\\Users\\kimge\\AppData\\Local\\Programs\\Python\\Python310\\lib\\getpass.py',
   'PYMODULE'),
  ('nturl2path',
   'C:\\Users\\kimge\\AppData\\Local\\Programs\\Python\\Python310\\lib\\nturl2path.py',
   'PYMODULE'),
  ('ftplib',
   'C:\\Users\\kimge\\AppData\\Local\\Programs\\Python\\Python310\\lib\\ftplib.py',
   'PYMODULE'),
  ('netrc',
   'C:\\Users\\kimge\\AppData\\Local\\Programs\\Python\\Python310\\lib\\netrc.py',
   'PYMODULE'),
  ('http.cookiejar',
   'C:\\Users\\kimge\\AppData\\Local\\Programs\\Python\\Python310\\lib\\http\\cookiejar.py',
   'PYMODULE'),
  ('hashlib',
   'C:\\Users\\kimge\\AppData\\Local\\Programs\\Python\\Python310\\lib\\hashlib.py',
   'PYMODULE'),
  ('bisect',
   'C:\\Users\\kimge\\AppData\\Local\\Programs\\Python\\Python310\\lib\\bisect.py',
   'PYMODULE'),
  ('stringprep',
   'C:\\Users\\kimge\\AppData\\Local\\Programs\\Python\\Python310\\lib\\stringprep.py',
   'PYMODULE'),
  ('_py_abc',
   'C:\\Users\\kimge\\AppData\\Local\\Programs\\Python\\Python310\\lib\\_py_abc.py',
   'PYMODULE'),
  ('tracemalloc',
   'C:\\Users\\kimge\\AppData\\Local\\Programs\\Python\\Python310\\lib\\tracemalloc.py',
   'PYMODULE'),
  ('random',
   'C:\\Users\\kimge\\AppData\\Local\\Programs\\Python\\Python310\\lib\\random.py',
   'PYMODULE'),
  ('statistics',
   'C:\\Users\\kimge\\AppData\\Local\\Programs\\Python\\Python310\\lib\\statistics.py',
   'PYMODULE'),
  ('decimal',
   'C:\\Users\\kimge\\AppData\\Local\\Programs\\Python\\Python310\\lib\\decimal.py',
   'PYMODULE'),
  ('_pydecimal',
   'C:\\Users\\kimge\\AppData\\Local\\Programs\\Python\\Python310\\lib\\_pydecimal.py',
   'PYMODULE'),
  ('contextvars',
   'C:\\Users\\kimge\\AppData\\Local\\Programs\\Python\\Python310\\lib\\contextvars.py',
   'PYMODULE'),
  ('fractions',
   'C:\\Users\\kimge\\AppData\\Local\\Programs\\Python\\Python310\\lib\\fractions.py',
   'PYMODULE'),
  ('numbers',
   'C:\\Users\\kimge\\AppData\\Local\\Programs\\Python\\Python310\\lib\\numbers.py',
   'PYMODULE'),
  ('pygame',
   'C:\\Users\\kimge\\games\\kim-pygames\\.venv\\lib\\site-packages\\pygame\\__init__.py',
   'PYMODULE'),
  ('pygame.colordict',
   'C:\\Users\\kimge\\games\\kim-pygames\\.venv\\lib\\site-packages\\pygame\\colordict.py',
   'PYMODULE'),
  ('pygame.macosx',
   'C:\\Users\\kimge\\games\\kim-pygames\\.venv\\lib\\site-packages\\pygame\\macosx.py',
   'PYMODULE'),
  ('pygame.pkgdata',
   'C:\\Users\\kimge\\games\\kim-pygames\\.venv\\lib\\site-packages\\pygame\\pkgdata.py',
   'PYMODULE'),
  ('pygame.fastevent',
   'C:\\Users\\kimge\\games\\kim-pygames\\.venv\\lib\\site-packages\\pygame\\fastevent.py',
   'PYMODULE'),
  ('pygame.sndarray',
   'C:\\Users\\kimge\\games\\kim-pygames\\.venv\\lib\\site-packages\\pygame\\sndarray.py',
   'PYMODULE'),
  ('pygame.surfarray',
   'C:\\Users\\kimge\\games\\kim-pygames\\.venv\\lib\\site-packages\\pygame\\surfarray.py',
   'PYMODULE'),
  ('pygame.sysfont',
   'C:\\Users\\kimge\\games\\kim-pygames\\.venv\\lib\\site-packages\\pygame\\sysfont.py',
   'PYMODULE'),
  ('pygame.ftfont',
   'C:\\Users\\kimge\\games\\kim-pygames\\.venv\\lib\\site-packages\\pygame\\ftfont.py',
   'PYMODULE'),
  ('pygame.threads',
   'C:\\Users\\kimge\\games\\kim-pygames\\.venv\\lib\\site-packages\\pygame\\threads\\__init__.py',
   'PYMODULE'),
  ('pygame.sprite',
   'C:\\Users\\kimge\\games\\kim-pygames\\.venv\\lib\\site-packages\\pygame\\sprite.py',
   'PYMODULE'),
  ('pygame.cursors',
   'C:\\Users\\kimge\\games\\kim-pygames\\.venv\\lib\\site-packages\\pygame\\cursors.py',
   'PYMODULE'),
  ('pygame.version',
   'C:\\Users\\kimge\\games\\kim-pygames\\.venv\\lib\\site-packages\\pygame\\version.py',
   'PYMODULE')],
 [('python310.dll',
   'C:\\Users\\kimge\\AppData\\Local\\Programs\\Python\\Python310\\python310.dll',
   'BINARY'),
  ('VCRUNTIME140.dll',
   'C:\\Users\\kimge\\AppData\\Local\\Programs\\Python\\Python310\\VCRUNTIME140.dll',
   'BINARY'),
  ('api-ms-win-crt-stdio-l1-1-0.dll',
   'C:\\Program Files\\PowerShell\\7\\api-ms-win-crt-stdio-l1-1-0.dll',
   'BINARY'),
  ('api-ms-win-crt-math-l1-1-0.dll',
   'C:\\Program Files\\PowerShell\\7\\api-ms-win-crt-math-l1-1-0.dll',
   'BINARY'),
  ('api-ms-win-crt-heap-l1-1-0.dll',
   'C:\\Program Files\\PowerShell\\7\\api-ms-win-crt-heap-l1-1-0.dll',
   'BINARY'),
  ('api-ms-win-crt-locale-l1-1-0.dll',
   'C:\\Program Files\\PowerShell\\7\\api-ms-win-crt-locale-l1-1-0.dll',
   'BINARY'),
  ('api-ms-win-crt-runtime-l1-1-0.dll',
   'C:\\Program Files\\PowerShell\\7\\api-ms-win-crt-runtime-l1-1-0.dll',
   'BINARY'),
  ('api-ms-win-crt-filesystem-l1-1-0.dll',
   'C:\\Program Files\\PowerShell\\7\\api-ms-win-crt-filesystem-l1-1-0.dll',
   'BINARY'),
  ('api-ms-win-crt-convert-l1-1-0.dll',
   'C:\\Program Files\\PowerShell\\7\\api-ms-win-crt-convert-l1-1-0.dll',
   'BINARY'),
  ('api-ms-win-crt-time-l1-1-0.dll',
   'C:\\Program Files\\PowerShell\\7\\api-ms-win-crt-time-l1-1-0.dll',
   'BINARY'),
  ('api-ms-win-crt-environment-l1-1-0.dll',
   'C:\\Program Files\\PowerShell\\7\\api-ms-win-crt-environment-l1-1-0.dll',
   'BINARY'),
  ('api-ms-win-crt-process-l1-1-0.dll',
   'C:\\Program Files\\PowerShell\\7\\api-ms-win-crt-process-l1-1-0.dll',
   'BINARY'),
  ('api-ms-win-crt-conio-l1-1-0.dll',
   'C:\\Program Files\\PowerShell\\7\\api-ms-win-crt-conio-l1-1-0.dll',
   'BINARY'),
  ('api-ms-win-crt-string-l1-1-0.dll',
   'C:\\Program Files\\PowerShell\\7\\api-ms-win-crt-string-l1-1-0.dll',
   'BINARY'),
  ('ucrtbase.dll', 'C:\\Program Files\\PowerShell\\7\\ucrtbase.dll', 'BINARY'),
  ('api-ms-win-core-handle-l1-1-0.dll',
   'C:\\Program Files\\PowerShell\\7\\api-ms-win-core-handle-l1-1-0.dll',
   'BINARY'),
  ('api-ms-win-core-errorhandling-l1-1-0.dll',
   'C:\\Program Files\\PowerShell\\7\\api-ms-win-core-errorhandling-l1-1-0.dll',
   'BINARY'),
  ('api-ms-win-core-console-l1-1-0.dll',
   'C:\\Program Files\\PowerShell\\7\\api-ms-win-core-console-l1-1-0.dll',
   'BINARY'),
  ('api-ms-win-core-libraryloader-l1-1-0.dll',
   'C:\\Program Files\\PowerShell\\7\\api-ms-win-core-libraryloader-l1-1-0.dll',
   'BINARY'),
  ('api-ms-win-core-processthreads-l1-1-1.dll',
   'C:\\Program '
   'Files\\PowerShell\\7\\api-ms-win-core-processthreads-l1-1-1.dll',
   'BINARY'),
  ('api-ms-win-core-string-l1-1-0.dll',
   'C:\\Program Files\\PowerShell\\7\\api-ms-win-core-string-l1-1-0.dll',
   'BINARY'),
  ('api-ms-win-core-synch-l1-2-0.dll',
   'C:\\Program Files\\PowerShell\\7\\api-ms-win-core-synch-l1-2-0.dll',
   'BINARY'),
  ('api-ms-win-core-profile-l1-1-0.dll',
   'C:\\Program Files\\PowerShell\\7\\api-ms-win-core-profile-l1-1-0.dll',
   'BINARY'),
  ('api-ms-win-core-interlocked-l1-1-0.dll',
   'C:\\Program Files\\PowerShell\\7\\api-ms-win-core-interlocked-l1-1-0.dll',
   'BINARY'),
  ('api-ms-win-core-debug-l1-1-0.dll',
   'C:\\Program Files\\PowerShell\\7\\api-ms-win-core-debug-l1-1-0.dll',
   'BINARY'),
  ('api-ms-win-core-memory-l1-1-0.dll',
   'C:\\Program Files\\PowerShell\\7\\api-ms-win-core-memory-l1-1-0.dll',
   'BINARY'),
  ('api-ms-win-core-fibers-l1-1-0.dll',
   'C:\\Program Files\\PowerShell\\7\\api-ms-win-core-fibers-l1-1-0.dll',
   'BINARY'),
  ('api-ms-win-core-file-l1-2-0.dll',
   'C:\\Program Files\\PowerShell\\7\\api-ms-win-core-file-l1-2-0.dll',
   'BINARY'),
  ('api-ms-win-core-namedpipe-l1-1-0.dll',
   'C:\\Program Files\\PowerShell\\7\\api-ms-win-core-namedpipe-l1-1-0.dll',
   'BINARY'),
  ('api-ms-win-core-heap-l1-1-0.dll',
   'C:\\Program Files\\PowerShell\\7\\api-ms-win-core-heap-l1-1-0.dll',
   'BINARY'),
  ('api-ms-win-core-util-l1-1-0.dll',
   'C:\\Program Files\\PowerShell\\7\\api-ms-win-core-util-l1-1-0.dll',
   'BINARY'),
  ('api-ms-win-core-timezone-l1-1-0.dll',
   'C:\\Program Files\\PowerShell\\7\\api-ms-win-core-timezone-l1-1-0.dll',
   'BINARY'),
  ('api-ms-win-core-processenvironment-l1-1-0.dll',
   'C:\\Program '
   'Files\\PowerShell\\7\\api-ms-win-core-processenvironment-l1-1-0.dll',
   'BINARY'),
  ('api-ms-win-core-processthreads-l1-1-0.dll',
   'C:\\Program '
   'Files\\PowerShell\\7\\api-ms-win-core-processthreads-l1-1-0.dll',
   'BINARY'),
  ('api-ms-win-core-sysinfo-l1-1-0.dll',
   'C:\\Program Files\\PowerShell\\7\\api-ms-win-core-sysinfo-l1-1-0.dll',
   'BINARY'),
  ('api-ms-win-core-datetime-l1-1-0.dll',
   'C:\\Program Files\\PowerShell\\7\\api-ms-win-core-datetime-l1-1-0.dll',
   'BINARY'),
  ('api-ms-win-core-synch-l1-1-0.dll',
   'C:\\Program Files\\PowerShell\\7\\api-ms-win-core-synch-l1-1-0.dll',
   'BINARY'),
  ('api-ms-win-core-file-l1-1-0.dll',
   'C:\\Program Files\\PowerShell\\7\\api-ms-win-core-file-l1-1-0.dll',
   'BINARY'),
  ('api-ms-win-core-file-l2-1-0.dll',
   'C:\\Program Files\\PowerShell\\7\\api-ms-win-core-file-l2-1-0.dll',
   'BINARY'),
  ('api-ms-win-core-localization-l1-2-0.dll',
   'C:\\Program Files\\PowerShell\\7\\api-ms-win-core-localization-l1-2-0.dll',
   'BINARY'),
  ('api-ms-win-core-rtlsupport-l1-1-0.dll',
   'C:\\Program Files\\PowerShell\\7\\api-ms-win-core-rtlsupport-l1-1-0.dll',
   'BINARY'),
  ('libvorbis-0.dll',
   'C:\\Users\\kimge\\games\\kim-pygames\\.venv\\lib\\site-packages\\pygame\\libvorbis-0.dll',
   'BINARY'),
  ('libwebp-7.dll',
   'C:\\Users\\kimge\\games\\kim-pygames\\.venv\\lib\\site-packages\\pygame\\libwebp-7.dll',
   'BINARY'),
  ('portmidi.dll',
   'C:\\Users\\kimge\\games\\kim-pygames\\.venv\\lib\\site-packages\\pygame\\portmidi.dll',
   'BINARY'),
  ('libjpeg-9.dll',
   'C:\\Users\\kimge\\games\\kim-pygames\\.venv\\lib\\site-packages\\pygame\\libjpeg-9.dll',
   'BINARY'),
  ('libtiff-5.dll',
   'C:\\Users\\kimge\\games\\kim-pygames\\.venv\\lib\\site-packages\\pygame\\libtiff-5.dll',
   'BINARY'),
  ('libFLAC-8.dll',
   'C:\\Users\\kimge\\games\\kim-pygames\\.venv\\lib\\site-packages\\pygame\\libFLAC-8.dll',
   'BINARY'),
  ('libopus-0.dll',
   'C:\\Users\\kimge\\games\\kim-pygames\\.venv\\lib\\site-packages\\pygame\\libopus-0.dll',
   'BINARY'),
  ('SDL2_mixer.dll',
   'C:\\Users\\kimge\\games\\kim-pygames\\.venv\\lib\\site-packages\\pygame\\SDL2_mixer.dll',
   'BINARY'),
  ('libmodplug-1.dll',
   'C:\\Users\\kimge\\games\\kim-pygames\\.venv\\lib\\site-packages\\pygame\\libmodplug-1.dll',
   'BINARY'),
  ('libopusfile-0.dll',
   'C:\\Users\\kimge\\games\\kim-pygames\\.venv\\lib\\site-packages\\pygame\\libopusfile-0.dll',
   'BINARY'),
  ('libpng16-16.dll',
   'C:\\Users\\kimge\\games\\kim-pygames\\.venv\\lib\\site-packages\\pygame\\libpng16-16.dll',
   'BINARY'),
  ('libmpg123-0.dll',
   'C:\\Users\\kimge\\games\\kim-pygames\\.venv\\lib\\site-packages\\pygame\\libmpg123-0.dll',
   'BINARY'),
  ('SDL2.dll',
   'C:\\Users\\kimge\\games\\kim-pygames\\.venv\\lib\\site-packages\\pygame\\SDL2.dll',
   'BINARY'),
  ('SDL2_image.dll',
   'C:\\Users\\kimge\\games\\kim-pygames\\.venv\\lib\\site-packages\\pygame\\SDL2_image.dll',
   'BINARY'),
  ('libogg-0.dll',
   'C:\\Users\\kimge\\games\\kim-pygames\\.venv\\lib\\site-packages\\pygame\\libogg-0.dll',
   'BINARY'),
  ('zlib1.dll',
   'C:\\Users\\kimge\\games\\kim-pygames\\.venv\\lib\\site-packages\\pygame\\zlib1.dll',
   'BINARY'),
  ('libfreetype-6.dll',
   'C:\\Users\\kimge\\games\\kim-pygames\\.venv\\lib\\site-packages\\pygame\\libfreetype-6.dll',
   'BINARY'),
  ('SDL2_ttf.dll',
   'C:\\Users\\kimge\\games\\kim-pygames\\.venv\\lib\\site-packages\\pygame\\SDL2_ttf.dll',
   'BINARY'),
  ('libvorbisfile-3.dll',
   'C:\\Users\\kimge\\games\\kim-pygames\\.venv\\lib\\site-packages\\pygame\\libvorbisfile-3.dll',
   'BINARY'),
  ('_lzma.pyd',
   'C:\\Users\\kimge\\AppData\\Local\\Programs\\Python\\Python310\\DLLs\\_lzma.pyd',
   'EXTENSION'),
  ('_bz2.pyd',
   'C:\\Users\\kimge\\AppData\\Local\\Programs\\Python\\Python310\\DLLs\\_bz2.pyd',
   'EXTENSION'),
  ('select.pyd',
   'C:\\Users\\kimge\\AppData\\Local\\Programs\\Python\\Python310\\DLLs\\select.pyd',
   'EXTENSION'),
  ('_socket.pyd',
   'C:\\Users\\kimge\\AppData\\Local\\Programs\\Python\\Python310\\DLLs\\_socket.pyd',
   'EXTENSION'),
  ('_ctypes.pyd',
   'C:\\Users\\kimge\\AppData\\Local\\Programs\\Python\\Python310\\DLLs\\_ctypes.pyd',
   'EXTENSION'),
  ('_ssl.pyd',
   'C:\\Users\\kimge\\AppData\\Local\\Programs\\Python\\Python310\\DLLs\\_ssl.pyd',
   'EXTENSION'),
  ('_queue.pyd',
   'C:\\Users\\kimge\\AppData\\Local\\Programs\\Python\\Python310\\DLLs\\_queue.pyd',
   'EXTENSION'),
  ('pyexpat.pyd',
   'C:\\Users\\kimge\\AppData\\Local\\Programs\\Python\\Python310\\DLLs\\pyexpat.pyd',
   'EXTENSION'),
  ('_hashlib.pyd',
   'C:\\Users\\kimge\\AppData\\Local\\Programs\\Python\\Python310\\DLLs\\_hashlib.pyd',
   'EXTENSION'),
  ('unicodedata.pyd',
   'C:\\Users\\kimge\\AppData\\Local\\Programs\\Python\\Python310\\DLLs\\unicodedata.pyd',
   'EXTENSION'),
  ('_decimal.pyd',
   'C:\\Users\\kimge\\AppData\\Local\\Programs\\Python\\Python310\\DLLs\\_decimal.pyd',
   'EXTENSION'),
  ('pygame\\imageext.cp310-win_amd64.pyd',
   'C:\\Users\\kimge\\games\\kim-pygames\\.venv\\lib\\site-packages\\pygame\\imageext.cp310-win_amd64.pyd',
   'EXTENSION'),
  ('pygame\\scrap.cp310-win_amd64.pyd',
   'C:\\Users\\kimge\\games\\kim-pygames\\.venv\\lib\\site-packages\\pygame\\scrap.cp310-win_amd64.pyd',
   'EXTENSION'),
  ('pygame\\mixer.cp310-win_amd64.pyd',
   'C:\\Users\\kimge\\games\\kim-pygames\\.venv\\lib\\site-packages\\pygame\\mixer.cp310-win_amd64.pyd',
   'EXTENSION'),
  ('pygame\\mixer_music.cp310-win_amd64.pyd',
   'C:\\Users\\kimge\\games\\kim-pygames\\.venv\\lib\\site-packages\\pygame\\mixer_music.cp310-win_amd64.pyd',
   'EXTENSION'),
  ('pygame\\font.cp310-win_amd64.pyd',
   'C:\\Users\\kimge\\games\\kim-pygames\\.venv\\lib\\site-packages\\pygame\\font.cp310-win_amd64.pyd',
   'EXTENSION'),
  ('pygame\\_freetype.cp310-win_amd64.pyd',
   'C:\\Users\\kimge\\games\\kim-pygames\\.venv\\lib\\site-packages\\pygame\\_freetype.cp310-win_amd64.pyd',
   'EXTENSION'),
  ('pygame\\transform.cp310-win_amd64.pyd',
   'C:\\Users\\kimge\\games\\kim-pygames\\.venv\\lib\\site-packages\\pygame\\transform.cp310-win_amd64.pyd',
   'EXTENSION'),
  ('pygame\\time.cp310-win_amd64.pyd',
   'C:\\Users\\kimge\\games\\kim-pygames\\.venv\\lib\\site-packages\\pygame\\time.cp310-win_amd64.pyd',
   'EXTENSION'),
  ('pygame\\pixelarray.cp310-win_amd64.pyd',
   'C:\\Users\\kimge\\games\\kim-pygames\\.venv\\lib\\site-packages\\pygame\\pixelarray.cp310-win_amd64.pyd',
   'EXTENSION'),
  ('pygame\\mask.cp310-win_amd64.pyd',
   'C:\\Users\\kimge\\games\\kim-pygames\\.venv\\lib\\site-packages\\pygame\\mask.cp310-win_amd64.pyd',
   'EXTENSION'),
  ('pygame\\surface.cp310-win_amd64.pyd',
   'C:\\Users\\kimge\\games\\kim-pygames\\.venv\\lib\\site-packages\\pygame\\surface.cp310-win_amd64.pyd',
   'EXTENSION'),
  ('pygame\\pixelcopy.cp310-win_amd64.pyd',
   'C:\\Users\\kimge\\games\\kim-pygames\\.venv\\lib\\site-packages\\pygame\\pixelcopy.cp310-win_amd64.pyd',
   'EXTENSION'),
  ('pygame\\mouse.cp310-win_amd64.pyd',
   'C:\\Users\\kimge\\games\\kim-pygames\\.venv\\lib\\site-packages\\pygame\\mouse.cp310-win_amd64.pyd',
   'EXTENSION'),
  ('pygame\\key.cp310-win_amd64.pyd',
   'C:\\Users\\kimge\\games\\kim-pygames\\.venv\\lib\\site-packages\\pygame\\key.cp310-win_amd64.pyd',
   'EXTENSION'),
  ('pygame\\joystick.cp310-win_amd64.pyd',
   'C:\\Users\\kimge\\games\\kim-pygames\\.venv\\lib\\site-packages\\pygame\\joystick.cp310-win_amd64.pyd',
   'EXTENSION'),
  ('pygame\\image.cp310-win_amd64.pyd',
   'C:\\Users\\kimge\\games\\kim-pygames\\.venv\\lib\\site-packages\\pygame\\image.cp310-win_amd64.pyd',
   'EXTENSION'),
  ('pygame\\event.cp310-win_amd64.pyd',
   'C:\\Users\\kimge\\games\\kim-pygames\\.venv\\lib\\site-packages\\pygame\\event.cp310-win_amd64.pyd',
   'EXTENSION'),
  ('pygame\\draw.cp310-win_amd64.pyd',
   'C:\\Users\\kimge\\games\\kim-pygames\\.venv\\lib\\site-packages\\pygame\\draw.cp310-win_amd64.pyd',
   'EXTENSION'),
  ('pygame\\display.cp310-win_amd64.pyd',
   'C:\\Users\\kimge\\games\\kim-pygames\\.venv\\lib\\site-packages\\pygame\\display.cp310-win_amd64.pyd',
   'EXTENSION'),
  ('pygame\\math.cp310-win_amd64.pyd',
   'C:\\Users\\kimge\\games\\kim-pygames\\.venv\\lib\\site-packages\\pygame\\math.cp310-win_amd64.pyd',
   'EXTENSION'),
  ('pygame\\bufferproxy.cp310-win_amd64.pyd',
   'C:\\Users\\kimge\\games\\kim-pygames\\.venv\\lib\\site-packages\\pygame\\bufferproxy.cp310-win_amd64.pyd',
   'EXTENSION'),
  ('pygame\\color.cp310-win_amd64.pyd',
   'C:\\Users\\kimge\\games\\kim-pygames\\.venv\\lib\\site-packages\\pygame\\color.cp310-win_amd64.pyd',
   'EXTENSION'),
  ('pygame\\surflock.cp310-win_amd64.pyd',
   'C:\\Users\\kimge\\games\\kim-pygames\\.venv\\lib\\site-packages\\pygame\\surflock.cp310-win_amd64.pyd',
   'EXTENSION'),
  ('pygame\\rwobject.cp310-win_amd64.pyd',
   'C:\\Users\\kimge\\games\\kim-pygames\\.venv\\lib\\site-packages\\pygame\\rwobject.cp310-win_amd64.pyd',
   'EXTENSION'),
  ('pygame\\rect.cp310-win_amd64.pyd',
   'C:\\Users\\kimge\\games\\kim-pygames\\.venv\\lib\\site-packages\\pygame\\rect.cp310-win_amd64.pyd',
   'EXTENSION'),
  ('pygame\\constants.cp310-win_amd64.pyd',
   'C:\\Users\\kimge\\games\\kim-pygames\\.venv\\lib\\site-packages\\pygame\\constants.cp310-win_amd64.pyd',
   'EXTENSION'),
  ('pygame\\base.cp310-win_amd64.pyd',
   'C:\\Users\\kimge\\games\\kim-pygames\\.venv\\lib\\site-packages\\pygame\\base.cp310-win_amd64.pyd',
   'EXTENSION'),
  ('pygame\\libogg-0.dll',
   'C:\\Users\\kimge\\games\\kim-pygames\\.venv\\lib\\site-packages\\pygame\\libogg-0.dll',
   'BINARY'),
  ('pygame\\zlib1.dll',
   'C:\\Users\\kimge\\games\\kim-pygames\\.venv\\lib\\site-packages\\pygame\\zlib1.dll',
   'BINARY'),
  ('pygame\\SDL2.dll',
   'C:\\Users\\kimge\\games\\kim-pygames\\.venv\\lib\\site-packages\\pygame\\SDL2.dll',
   'BINARY'),
  ('libffi-7.dll',
   'C:\\Users\\kimge\\AppData\\Local\\Programs\\Python\\Python310\\DLLs\\libffi-7.dll',
   'BINARY'),
  ('libcrypto-1_1.dll',
   'C:\\Users\\kimge\\AppData\\Local\\Programs\\Python\\Python310\\DLLs\\libcrypto-1_1.dll',
   'BINARY'),
  ('libssl-1_1.dll',
   'C:\\Users\\kimge\\AppData\\Local\\Programs\\Python\\Python310\\DLLs\\libssl-1_1.dll',
   'BINARY'),
  ('api-ms-win-crt-utility-l1-1-0.dll',
   'C:\\Program Files\\PowerShell\\7\\api-ms-win-crt-utility-l1-1-0.dll',
   'BINARY')],
 [],
 [],
 [('base_library.zip',
   'C:\\Users\\kimge\\games\\kim-pygames\\test_game\\build\\test\\base_library.zip',
   'DATA'),
  ('pygame\\freesansbold.ttf',
   'C:\\Users\\kimge\\games\\kim-pygames\\.venv\\lib\\site-packages\\pygame\\freesansbold.ttf',
   'DATA'),
  ('pygame\\pygame_icon.bmp',
   'C:\\Users\\kimge\\games\\kim-pygames\\.venv\\lib\\site-packages\\pygame\\pygame_icon.bmp',
   'DATA')],
 [])
