('C:\\Users\\kimge\\games\\kim-pygames\\test_game\\dist\\test.exe',
 False,
 False,
 False,
 'C:\\Users\\kimge\\games\\kim-pygames\\.venv\\lib\\site-packages\\PyInstaller\\bootloader\\images\\icon-windowed.ico',
 None,
 False,
 False,
 '<?xml version="1.0" encoding="UTF-8" standalone="yes"?><assembly xmlns="urn:schemas-microsoft-com:asm.v1" manifestVersion="1.0"><assemblyIdentity type="win32" name="test" processorArchitecture="amd64" version="1.0.0.0"/><trustInfo xmlns="urn:schemas-microsoft-com:asm.v3"><security><requestedPrivileges><requestedExecutionLevel level="asInvoker" uiAccess="false"/></requestedPrivileges></security></trustInfo><dependency><dependentAssembly><assemblyIdentity type="win32" name="Microsoft.Windows.Common-Controls" language="*" processorArchitecture="*" version="6.0.0.0" publicKeyToken="6595b64144ccf1df"/></dependentAssembly></dependency><compatibility xmlns="urn:schemas-microsoft-com:compatibility.v1"><application><supportedOS Id="{e2011457-1546-43c5-a5fe-008deee3d3f0}"/><supportedOS Id="{35138b9a-5d96-4fbd-8e2d-a2440225f93a}"/><supportedOS Id="{4a2f28e3-53b9-4441-ba9c-d69d4a4a6e38}"/><supportedOS Id="{1f676c76-80e1-4239-95bb-83d0f6d0da78}"/><supportedOS Id="{8e0f7a12-bfb3-4fe8-b9a5-48fd50a15a9a}"/></application></compatibility><application xmlns="urn:schemas-microsoft-com:asm.v3"><windowsSettings><longPathAware xmlns="http://schemas.microsoft.com/SMI/2016/WindowsSettings">true</longPathAware></windowsSettings></application></assembly>',
 True,
 True,
 False,
 None,
 None,
 None,
 'C:\\Users\\kimge\\games\\kim-pygames\\test_game\\build\\test\\test.pkg',
 [('PYZ-00.pyz',
   'C:\\Users\\kimge\\games\\kim-pygames\\test_game\\build\\test\\PYZ-00.pyz',
   'PYZ'),
  ('struct',
   'C:\\Users\\kimge\\games\\kim-pygames\\test_game\\build\\test\\localpycs\\struct.pyc',
   'PYMODULE'),
  ('pyimod01_archive',
   'C:\\Users\\kimge\\games\\kim-pygames\\test_game\\build\\test\\localpycs\\pyimod01_archive.pyc',
   'PYMODULE'),
  ('pyimod02_importers',
   'C:\\Users\\kimge\\games\\kim-pygames\\test_game\\build\\test\\localpycs\\pyimod02_importers.pyc',
   'PYMODULE'),
  ('pyimod03_ctypes',
   'C:\\Users\\kimge\\games\\kim-pygames\\test_game\\build\\test\\localpycs\\pyimod03_ctypes.pyc',
   'PYMODULE'),
  ('pyimod04_pywin32',
   'C:\\Users\\kimge\\games\\kim-pygames\\test_game\\build\\test\\localpycs\\pyimod04_pywin32.pyc',
   'PYMODULE'),
  ('pyiboot01_bootstrap',
   'C:\\Users\\kimge\\games\\kim-pygames\\.venv\\lib\\site-packages\\PyInstaller\\loader\\pyiboot01_bootstrap.py',
   'PYSOURCE'),
  ('pyi_rth_inspect',
   'C:\\Users\\kimge\\games\\kim-pygames\\.venv\\Lib\\site-packages\\PyInstaller\\hooks\\rthooks\\pyi_rth_inspect.py',
   'PYSOURCE'),
  ('pyi_rth_pkgres',
   'C:\\Users\\kimge\\games\\kim-pygames\\.venv\\Lib\\site-packages\\PyInstaller\\hooks\\rthooks\\pyi_rth_pkgres.py',
   'PYSOURCE'),
  ('pyi_rth_pkgutil',
   'C:\\Users\\kimge\\games\\kim-pygames\\.venv\\Lib\\site-packages\\PyInstaller\\hooks\\rthooks\\pyi_rth_pkgutil.py',
   'PYSOURCE'),
  ('test',
   'C:\\Users\\kimge\\games\\kim-pygames\\test_game\\test.py',
   'PYSOURCE'),
  ('python310.dll',
   'C:\\Users\\kimge\\AppData\\Local\\Programs\\Python\\Python310\\python310.dll',
   'BINARY'),
  ('VCRUNTIME140.dll',
   'C:\\Users\\kimge\\AppData\\Local\\Programs\\Python\\Python310\\VCRUNTIME140.dll',
   'BINARY'),
  ('api-ms-win-crt-stdio-l1-1-0.dll',
   'C:\\Program Files\\PowerShell\\7\\api-ms-win-crt-stdio-l1-1-0.dll',
   'BINARY'),
  ('api-ms-win-crt-math-l1-1-0.dll',
   'C:\\Program Files\\PowerShell\\7\\api-ms-win-crt-math-l1-1-0.dll',
   'BINARY'),
  ('api-ms-win-crt-heap-l1-1-0.dll',
   'C:\\Program Files\\PowerShell\\7\\api-ms-win-crt-heap-l1-1-0.dll',
   'BINARY'),
  ('api-ms-win-crt-locale-l1-1-0.dll',
   'C:\\Program Files\\PowerShell\\7\\api-ms-win-crt-locale-l1-1-0.dll',
   'BINARY'),
  ('api-ms-win-crt-runtime-l1-1-0.dll',
   'C:\\Program Files\\PowerShell\\7\\api-ms-win-crt-runtime-l1-1-0.dll',
   'BINARY'),
  ('api-ms-win-crt-filesystem-l1-1-0.dll',
   'C:\\Program Files\\PowerShell\\7\\api-ms-win-crt-filesystem-l1-1-0.dll',
   'BINARY'),
  ('api-ms-win-crt-convert-l1-1-0.dll',
   'C:\\Program Files\\PowerShell\\7\\api-ms-win-crt-convert-l1-1-0.dll',
   'BINARY'),
  ('api-ms-win-crt-time-l1-1-0.dll',
   'C:\\Program Files\\PowerShell\\7\\api-ms-win-crt-time-l1-1-0.dll',
   'BINARY'),
  ('api-ms-win-crt-environment-l1-1-0.dll',
   'C:\\Program Files\\PowerShell\\7\\api-ms-win-crt-environment-l1-1-0.dll',
   'BINARY'),
  ('api-ms-win-crt-process-l1-1-0.dll',
   'C:\\Program Files\\PowerShell\\7\\api-ms-win-crt-process-l1-1-0.dll',
   'BINARY'),
  ('api-ms-win-crt-conio-l1-1-0.dll',
   'C:\\Program Files\\PowerShell\\7\\api-ms-win-crt-conio-l1-1-0.dll',
   'BINARY'),
  ('api-ms-win-crt-string-l1-1-0.dll',
   'C:\\Program Files\\PowerShell\\7\\api-ms-win-crt-string-l1-1-0.dll',
   'BINARY'),
  ('ucrtbase.dll', 'C:\\Program Files\\PowerShell\\7\\ucrtbase.dll', 'BINARY'),
  ('api-ms-win-core-handle-l1-1-0.dll',
   'C:\\Program Files\\PowerShell\\7\\api-ms-win-core-handle-l1-1-0.dll',
   'BINARY'),
  ('api-ms-win-core-errorhandling-l1-1-0.dll',
   'C:\\Program Files\\PowerShell\\7\\api-ms-win-core-errorhandling-l1-1-0.dll',
   'BINARY'),
  ('api-ms-win-core-console-l1-1-0.dll',
   'C:\\Program Files\\PowerShell\\7\\api-ms-win-core-console-l1-1-0.dll',
   'BINARY'),
  ('api-ms-win-core-libraryloader-l1-1-0.dll',
   'C:\\Program Files\\PowerShell\\7\\api-ms-win-core-libraryloader-l1-1-0.dll',
   'BINARY'),
  ('api-ms-win-core-processthreads-l1-1-1.dll',
   'C:\\Program '
   'Files\\PowerShell\\7\\api-ms-win-core-processthreads-l1-1-1.dll',
   'BINARY'),
  ('api-ms-win-core-string-l1-1-0.dll',
   'C:\\Program Files\\PowerShell\\7\\api-ms-win-core-string-l1-1-0.dll',
   'BINARY'),
  ('api-ms-win-core-synch-l1-2-0.dll',
   'C:\\Program Files\\PowerShell\\7\\api-ms-win-core-synch-l1-2-0.dll',
   'BINARY'),
  ('api-ms-win-core-profile-l1-1-0.dll',
   'C:\\Program Files\\PowerShell\\7\\api-ms-win-core-profile-l1-1-0.dll',
   'BINARY'),
  ('api-ms-win-core-interlocked-l1-1-0.dll',
   'C:\\Program Files\\PowerShell\\7\\api-ms-win-core-interlocked-l1-1-0.dll',
   'BINARY'),
  ('api-ms-win-core-debug-l1-1-0.dll',
   'C:\\Program Files\\PowerShell\\7\\api-ms-win-core-debug-l1-1-0.dll',
   'BINARY'),
  ('api-ms-win-core-memory-l1-1-0.dll',
   'C:\\Program Files\\PowerShell\\7\\api-ms-win-core-memory-l1-1-0.dll',
   'BINARY'),
  ('api-ms-win-core-fibers-l1-1-0.dll',
   'C:\\Program Files\\PowerShell\\7\\api-ms-win-core-fibers-l1-1-0.dll',
   'BINARY'),
  ('api-ms-win-core-file-l1-2-0.dll',
   'C:\\Program Files\\PowerShell\\7\\api-ms-win-core-file-l1-2-0.dll',
   'BINARY'),
  ('api-ms-win-core-namedpipe-l1-1-0.dll',
   'C:\\Program Files\\PowerShell\\7\\api-ms-win-core-namedpipe-l1-1-0.dll',
   'BINARY'),
  ('api-ms-win-core-heap-l1-1-0.dll',
   'C:\\Program Files\\PowerShell\\7\\api-ms-win-core-heap-l1-1-0.dll',
   'BINARY'),
  ('api-ms-win-core-util-l1-1-0.dll',
   'C:\\Program Files\\PowerShell\\7\\api-ms-win-core-util-l1-1-0.dll',
   'BINARY'),
  ('api-ms-win-core-timezone-l1-1-0.dll',
   'C:\\Program Files\\PowerShell\\7\\api-ms-win-core-timezone-l1-1-0.dll',
   'BINARY'),
  ('api-ms-win-core-processenvironment-l1-1-0.dll',
   'C:\\Program '
   'Files\\PowerShell\\7\\api-ms-win-core-processenvironment-l1-1-0.dll',
   'BINARY'),
  ('api-ms-win-core-processthreads-l1-1-0.dll',
   'C:\\Program '
   'Files\\PowerShell\\7\\api-ms-win-core-processthreads-l1-1-0.dll',
   'BINARY'),
  ('api-ms-win-core-sysinfo-l1-1-0.dll',
   'C:\\Program Files\\PowerShell\\7\\api-ms-win-core-sysinfo-l1-1-0.dll',
   'BINARY'),
  ('api-ms-win-core-datetime-l1-1-0.dll',
   'C:\\Program Files\\PowerShell\\7\\api-ms-win-core-datetime-l1-1-0.dll',
   'BINARY'),
  ('api-ms-win-core-synch-l1-1-0.dll',
   'C:\\Program Files\\PowerShell\\7\\api-ms-win-core-synch-l1-1-0.dll',
   'BINARY'),
  ('api-ms-win-core-file-l1-1-0.dll',
   'C:\\Program Files\\PowerShell\\7\\api-ms-win-core-file-l1-1-0.dll',
   'BINARY'),
  ('api-ms-win-core-file-l2-1-0.dll',
   'C:\\Program Files\\PowerShell\\7\\api-ms-win-core-file-l2-1-0.dll',
   'BINARY'),
  ('api-ms-win-core-localization-l1-2-0.dll',
   'C:\\Program Files\\PowerShell\\7\\api-ms-win-core-localization-l1-2-0.dll',
   'BINARY'),
  ('api-ms-win-core-rtlsupport-l1-1-0.dll',
   'C:\\Program Files\\PowerShell\\7\\api-ms-win-core-rtlsupport-l1-1-0.dll',
   'BINARY'),
  ('libvorbis-0.dll',
   'C:\\Users\\kimge\\games\\kim-pygames\\.venv\\lib\\site-packages\\pygame\\libvorbis-0.dll',
   'BINARY'),
  ('libwebp-7.dll',
   'C:\\Users\\kimge\\games\\kim-pygames\\.venv\\lib\\site-packages\\pygame\\libwebp-7.dll',
   'BINARY'),
  ('portmidi.dll',
   'C:\\Users\\kimge\\games\\kim-pygames\\.venv\\lib\\site-packages\\pygame\\portmidi.dll',
   'BINARY'),
  ('libjpeg-9.dll',
   'C:\\Users\\kimge\\games\\kim-pygames\\.venv\\lib\\site-packages\\pygame\\libjpeg-9.dll',
   'BINARY'),
  ('libtiff-5.dll',
   'C:\\Users\\kimge\\games\\kim-pygames\\.venv\\lib\\site-packages\\pygame\\libtiff-5.dll',
   'BINARY'),
  ('libFLAC-8.dll',
   'C:\\Users\\kimge\\games\\kim-pygames\\.venv\\lib\\site-packages\\pygame\\libFLAC-8.dll',
   'BINARY'),
  ('libopus-0.dll',
   'C:\\Users\\kimge\\games\\kim-pygames\\.venv\\lib\\site-packages\\pygame\\libopus-0.dll',
   'BINARY'),
  ('SDL2_mixer.dll',
   'C:\\Users\\kimge\\games\\kim-pygames\\.venv\\lib\\site-packages\\pygame\\SDL2_mixer.dll',
   'BINARY'),
  ('libmodplug-1.dll',
   'C:\\Users\\kimge\\games\\kim-pygames\\.venv\\lib\\site-packages\\pygame\\libmodplug-1.dll',
   'BINARY'),
  ('libopusfile-0.dll',
   'C:\\Users\\kimge\\games\\kim-pygames\\.venv\\lib\\site-packages\\pygame\\libopusfile-0.dll',
   'BINARY'),
  ('libpng16-16.dll',
   'C:\\Users\\kimge\\games\\kim-pygames\\.venv\\lib\\site-packages\\pygame\\libpng16-16.dll',
   'BINARY'),
  ('libmpg123-0.dll',
   'C:\\Users\\kimge\\games\\kim-pygames\\.venv\\lib\\site-packages\\pygame\\libmpg123-0.dll',
   'BINARY'),
  ('SDL2.dll',
   'C:\\Users\\kimge\\games\\kim-pygames\\.venv\\lib\\site-packages\\pygame\\SDL2.dll',
   'BINARY'),
  ('SDL2_image.dll',
   'C:\\Users\\kimge\\games\\kim-pygames\\.venv\\lib\\site-packages\\pygame\\SDL2_image.dll',
   'BINARY'),
  ('libogg-0.dll',
   'C:\\Users\\kimge\\games\\kim-pygames\\.venv\\lib\\site-packages\\pygame\\libogg-0.dll',
   'BINARY'),
  ('zlib1.dll',
   'C:\\Users\\kimge\\games\\kim-pygames\\.venv\\lib\\site-packages\\pygame\\zlib1.dll',
   'BINARY'),
  ('libfreetype-6.dll',
   'C:\\Users\\kimge\\games\\kim-pygames\\.venv\\lib\\site-packages\\pygame\\libfreetype-6.dll',
   'BINARY'),
  ('SDL2_ttf.dll',
   'C:\\Users\\kimge\\games\\kim-pygames\\.venv\\lib\\site-packages\\pygame\\SDL2_ttf.dll',
   'BINARY'),
  ('libvorbisfile-3.dll',
   'C:\\Users\\kimge\\games\\kim-pygames\\.venv\\lib\\site-packages\\pygame\\libvorbisfile-3.dll',
   'BINARY'),
  ('_lzma.pyd',
   'C:\\Users\\kimge\\AppData\\Local\\Programs\\Python\\Python310\\DLLs\\_lzma.pyd',
   'EXTENSION'),
  ('_bz2.pyd',
   'C:\\Users\\kimge\\AppData\\Local\\Programs\\Python\\Python310\\DLLs\\_bz2.pyd',
   'EXTENSION'),
  ('select.pyd',
   'C:\\Users\\kimge\\AppData\\Local\\Programs\\Python\\Python310\\DLLs\\select.pyd',
   'EXTENSION'),
  ('_socket.pyd',
   'C:\\Users\\kimge\\AppData\\Local\\Programs\\Python\\Python310\\DLLs\\_socket.pyd',
   'EXTENSION'),
  ('_ctypes.pyd',
   'C:\\Users\\kimge\\AppData\\Local\\Programs\\Python\\Python310\\DLLs\\_ctypes.pyd',
   'EXTENSION'),
  ('_ssl.pyd',
   'C:\\Users\\kimge\\AppData\\Local\\Programs\\Python\\Python310\\DLLs\\_ssl.pyd',
   'EXTENSION'),
  ('_queue.pyd',
   'C:\\Users\\kimge\\AppData\\Local\\Programs\\Python\\Python310\\DLLs\\_queue.pyd',
   'EXTENSION'),
  ('pyexpat.pyd',
   'C:\\Users\\kimge\\AppData\\Local\\Programs\\Python\\Python310\\DLLs\\pyexpat.pyd',
   'EXTENSION'),
  ('_hashlib.pyd',
   'C:\\Users\\kimge\\AppData\\Local\\Programs\\Python\\Python310\\DLLs\\_hashlib.pyd',
   'EXTENSION'),
  ('unicodedata.pyd',
   'C:\\Users\\kimge\\AppData\\Local\\Programs\\Python\\Python310\\DLLs\\unicodedata.pyd',
   'EXTENSION'),
  ('_decimal.pyd',
   'C:\\Users\\kimge\\AppData\\Local\\Programs\\Python\\Python310\\DLLs\\_decimal.pyd',
   'EXTENSION'),
  ('pygame\\imageext.cp310-win_amd64.pyd',
   'C:\\Users\\kimge\\games\\kim-pygames\\.venv\\lib\\site-packages\\pygame\\imageext.cp310-win_amd64.pyd',
   'EXTENSION'),
  ('pygame\\scrap.cp310-win_amd64.pyd',
   'C:\\Users\\kimge\\games\\kim-pygames\\.venv\\lib\\site-packages\\pygame\\scrap.cp310-win_amd64.pyd',
   'EXTENSION'),
  ('pygame\\mixer.cp310-win_amd64.pyd',
   'C:\\Users\\kimge\\games\\kim-pygames\\.venv\\lib\\site-packages\\pygame\\mixer.cp310-win_amd64.pyd',
   'EXTENSION'),
  ('pygame\\mixer_music.cp310-win_amd64.pyd',
   'C:\\Users\\kimge\\games\\kim-pygames\\.venv\\lib\\site-packages\\pygame\\mixer_music.cp310-win_amd64.pyd',
   'EXTENSION'),
  ('pygame\\font.cp310-win_amd64.pyd',
   'C:\\Users\\kimge\\games\\kim-pygames\\.venv\\lib\\site-packages\\pygame\\font.cp310-win_amd64.pyd',
   'EXTENSION'),
  ('pygame\\_freetype.cp310-win_amd64.pyd',
   'C:\\Users\\kimge\\games\\kim-pygames\\.venv\\lib\\site-packages\\pygame\\_freetype.cp310-win_amd64.pyd',
   'EXTENSION'),
  ('pygame\\transform.cp310-win_amd64.pyd',
   'C:\\Users\\kimge\\games\\kim-pygames\\.venv\\lib\\site-packages\\pygame\\transform.cp310-win_amd64.pyd',
   'EXTENSION'),
  ('pygame\\time.cp310-win_amd64.pyd',
   'C:\\Users\\kimge\\games\\kim-pygames\\.venv\\lib\\site-packages\\pygame\\time.cp310-win_amd64.pyd',
   'EXTENSION'),
  ('pygame\\pixelarray.cp310-win_amd64.pyd',
   'C:\\Users\\kimge\\games\\kim-pygames\\.venv\\lib\\site-packages\\pygame\\pixelarray.cp310-win_amd64.pyd',
   'EXTENSION'),
  ('pygame\\mask.cp310-win_amd64.pyd',
   'C:\\Users\\kimge\\games\\kim-pygames\\.venv\\lib\\site-packages\\pygame\\mask.cp310-win_amd64.pyd',
   'EXTENSION'),
  ('pygame\\surface.cp310-win_amd64.pyd',
   'C:\\Users\\kimge\\games\\kim-pygames\\.venv\\lib\\site-packages\\pygame\\surface.cp310-win_amd64.pyd',
   'EXTENSION'),
  ('pygame\\pixelcopy.cp310-win_amd64.pyd',
   'C:\\Users\\kimge\\games\\kim-pygames\\.venv\\lib\\site-packages\\pygame\\pixelcopy.cp310-win_amd64.pyd',
   'EXTENSION'),
  ('pygame\\mouse.cp310-win_amd64.pyd',
   'C:\\Users\\kimge\\games\\kim-pygames\\.venv\\lib\\site-packages\\pygame\\mouse.cp310-win_amd64.pyd',
   'EXTENSION'),
  ('pygame\\key.cp310-win_amd64.pyd',
   'C:\\Users\\kimge\\games\\kim-pygames\\.venv\\lib\\site-packages\\pygame\\key.cp310-win_amd64.pyd',
   'EXTENSION'),
  ('pygame\\joystick.cp310-win_amd64.pyd',
   'C:\\Users\\kimge\\games\\kim-pygames\\.venv\\lib\\site-packages\\pygame\\joystick.cp310-win_amd64.pyd',
   'EXTENSION'),
  ('pygame\\image.cp310-win_amd64.pyd',
   'C:\\Users\\kimge\\games\\kim-pygames\\.venv\\lib\\site-packages\\pygame\\image.cp310-win_amd64.pyd',
   'EXTENSION'),
  ('pygame\\event.cp310-win_amd64.pyd',
   'C:\\Users\\kimge\\games\\kim-pygames\\.venv\\lib\\site-packages\\pygame\\event.cp310-win_amd64.pyd',
   'EXTENSION'),
  ('pygame\\draw.cp310-win_amd64.pyd',
   'C:\\Users\\kimge\\games\\kim-pygames\\.venv\\lib\\site-packages\\pygame\\draw.cp310-win_amd64.pyd',
   'EXTENSION'),
  ('pygame\\display.cp310-win_amd64.pyd',
   'C:\\Users\\kimge\\games\\kim-pygames\\.venv\\lib\\site-packages\\pygame\\display.cp310-win_amd64.pyd',
   'EXTENSION'),
  ('pygame\\math.cp310-win_amd64.pyd',
   'C:\\Users\\kimge\\games\\kim-pygames\\.venv\\lib\\site-packages\\pygame\\math.cp310-win_amd64.pyd',
   'EXTENSION'),
  ('pygame\\bufferproxy.cp310-win_amd64.pyd',
   'C:\\Users\\kimge\\games\\kim-pygames\\.venv\\lib\\site-packages\\pygame\\bufferproxy.cp310-win_amd64.pyd',
   'EXTENSION'),
  ('pygame\\color.cp310-win_amd64.pyd',
   'C:\\Users\\kimge\\games\\kim-pygames\\.venv\\lib\\site-packages\\pygame\\color.cp310-win_amd64.pyd',
   'EXTENSION'),
  ('pygame\\surflock.cp310-win_amd64.pyd',
   'C:\\Users\\kimge\\games\\kim-pygames\\.venv\\lib\\site-packages\\pygame\\surflock.cp310-win_amd64.pyd',
   'EXTENSION'),
  ('pygame\\rwobject.cp310-win_amd64.pyd',
   'C:\\Users\\kimge\\games\\kim-pygames\\.venv\\lib\\site-packages\\pygame\\rwobject.cp310-win_amd64.pyd',
   'EXTENSION'),
  ('pygame\\rect.cp310-win_amd64.pyd',
   'C:\\Users\\kimge\\games\\kim-pygames\\.venv\\lib\\site-packages\\pygame\\rect.cp310-win_amd64.pyd',
   'EXTENSION'),
  ('pygame\\constants.cp310-win_amd64.pyd',
   'C:\\Users\\kimge\\games\\kim-pygames\\.venv\\lib\\site-packages\\pygame\\constants.cp310-win_amd64.pyd',
   'EXTENSION'),
  ('pygame\\base.cp310-win_amd64.pyd',
   'C:\\Users\\kimge\\games\\kim-pygames\\.venv\\lib\\site-packages\\pygame\\base.cp310-win_amd64.pyd',
   'EXTENSION'),
  ('pygame\\libogg-0.dll',
   'C:\\Users\\kimge\\games\\kim-pygames\\.venv\\lib\\site-packages\\pygame\\libogg-0.dll',
   'BINARY'),
  ('pygame\\zlib1.dll',
   'C:\\Users\\kimge\\games\\kim-pygames\\.venv\\lib\\site-packages\\pygame\\zlib1.dll',
   'BINARY'),
  ('pygame\\SDL2.dll',
   'C:\\Users\\kimge\\games\\kim-pygames\\.venv\\lib\\site-packages\\pygame\\SDL2.dll',
   'BINARY'),
  ('libffi-7.dll',
   'C:\\Users\\kimge\\AppData\\Local\\Programs\\Python\\Python310\\DLLs\\libffi-7.dll',
   'BINARY'),
  ('libcrypto-1_1.dll',
   'C:\\Users\\kimge\\AppData\\Local\\Programs\\Python\\Python310\\DLLs\\libcrypto-1_1.dll',
   'BINARY'),
  ('libssl-1_1.dll',
   'C:\\Users\\kimge\\AppData\\Local\\Programs\\Python\\Python310\\DLLs\\libssl-1_1.dll',
   'BINARY'),
  ('api-ms-win-crt-utility-l1-1-0.dll',
   'C:\\Program Files\\PowerShell\\7\\api-ms-win-crt-utility-l1-1-0.dll',
   'BINARY'),
  ('base_library.zip',
   'C:\\Users\\kimge\\games\\kim-pygames\\test_game\\build\\test\\base_library.zip',
   'DATA'),
  ('pygame\\freesansbold.ttf',
   'C:\\Users\\kimge\\games\\kim-pygames\\.venv\\lib\\site-packages\\pygame\\freesansbold.ttf',
   'DATA'),
  ('pygame\\pygame_icon.bmp',
   'C:\\Users\\kimge\\games\\kim-pygames\\.venv\\lib\\site-packages\\pygame\\pygame_icon.bmp',
   'DATA'),
  ('duck.png',
   'C:\\Users\\kimge\\games\\kim-pygames\\test_game\\duck.png',
   'DATA'),
  ('crosshair.png',
   'C:\\Users\\kimge\\games\\kim-pygames\\test_game\\crosshair.png',
   'DATA'),
  ('Land_BG.png',
   'C:\\Users\\kimge\\games\\kim-pygames\\test_game\\Land_BG.png',
   'DATA'),
  ('Water_BG.png',
   'C:\\Users\\kimge\\games\\kim-pygames\\test_game\\Water_BG.png',
   'DATA'),
  ('Cloud2.png',
   'C:\\Users\\kimge\\games\\kim-pygames\\test_game\\Cloud2.png',
   'DATA'),
  ('Cloud1.png',
   'C:\\Users\\kimge\\games\\kim-pygames\\test_game\\Cloud1.png',
   'DATA'),
  ('Wood_BG.png',
   'C:\\Users\\kimge\\games\\kim-pygames\\test_game\\Wood_BG.png',
   'DATA')],
 [],
 False,
 False,
 1674108949,
 [('runw.exe',
   'C:\\Users\\kimge\\games\\kim-pygames\\.venv\\lib\\site-packages\\PyInstaller\\bootloader\\Windows-64bit-intel\\runw.exe',
   'EXECUTABLE')])
